{
  "EDITOR_STATE": {
    "allProjectFiles": {
      "13d2d074-a082-4a7e-9777-fb619afe92c9": {
        "id": "13d2d074-a082-4a7e-9777-fb619afe92c9",
        "parent": null,
        "name": "indu-135-oct22-withbitBuckk.js",
        "type": "JS_LAMBDA",
        "isDirectory": false,
        "children": [],
        "isRemovable": true,
        "filePath": "indu-135-oct22-withbitBuckk.js",
        "cursor": {
          "lineNumber": 14,
          "column": 36
        },
        "config": {
          "runtime": "nodejs10.x",
          "handler": "handler",
          "timeout": 60,
          "memory": 128,
          "layers": [],
          "name": "indu135Oct22WithbitBuckk"
        },
        "triggers": [],
        "lastUpdated": 1603353977412
      }
    },
    "openFiles": [
      "13d2d074-a082-4a7e-9777-fb619afe92c9"
    ],
    "currentFileId": "13d2d074-a082-4a7e-9777-fb619afe92c9",
    "resources": {
      "snsinduuu": {
        "name": "snsinduuu",
        "type": "SNS",
        "config": {
          "topicMode": 0,
          "topicName": "induuu",
          "topicArn": "arn:aws:sns:eu-west-1:CUR_AWS_ACCOUNT:induuu",
          "snsType": 0,
          "topicDisplayName": "sachii",
          "subscriptions": []
        }
      }
    },
    "customTemplate": {
      "syntax": "JSON",
      "overrideDefault": false,
      "dialect": "CloudFormation",
      "definitions": null
    },
    "envVariables": [
      {
        "lambdaId": "all",
        "varKey": "SIGMA_AWS_ACC_ID",
        "varValue": null,
        "shouldPersist": false,
        "displayOnly": false,
        "editable": false
      }
    ],
    "packageJSON": {
      "dependencies": {
        "aws-sdk": {
          "name": "aws-sdk",
          "language": "nodejs",
          "version": "2.644.0",
          "dev": true,
          "notRemovable": false
        }
      }
    }
  },
  "PROJECT_META": {
    "sigmaVersion": "1.4.4.1",
    "projectName": "indu-135-oct22-withbitBuckk",
    "projectDescription": "",
    "projectVersion": "1.0.0",
    "projectRegion": "eu-west-1",
    "platform": "AWS",
    "language": "nodejs",
    "platformRegions": {},
    "lastSave": 1603354567233
  },
  "VCS_STATE": {
    "provider": "BitBucket",
    "repo": {
      "name": "indu-135-oct22-withbitbuckksasass",
      "url": "https://bitbucket.org/Indunil1992/indu-135-oct22-withbitbuckksasass"
    }
  }
}